{
  "tests" : [ {
    "name" : "z1Desktop.gspec",
    "startedAt" : 1636894519069,
    "endedAt" : 1636894532520,
    "failed" : false,
    "statistic" : {
      "passed" : 20,
      "errors" : 0,
      "warnings" : 0,
      "total" : 20
    },
    "testId" : "1-z1desktop.gspec",
    "duration" : 13451,
    "failed" : false
  } ]
}